D:\AWCTQuoteCode_12_11_2020\AWCTMultifront931Quote\AWCTMultifront931\AWCTMultifront931\Projects\Znode.Engine.WebStore\Scripts\BarcodeScanner\BarcodeReader.js
D:\AWCTQuoteCode_12_11_2020\AWCTMultifront931Quote\AWCTMultifront931\AWCTMultifront931\Projects\Znode.Engine.WebStore\Scripts\BarcodeScanner\BarcodeReader.js.map
D:\AWCTQuoteCode_12_11_2020\AWCTMultifront931Quote\AWCTMultifront931\AWCTMultifront931\Projects\Znode.Engine.WebStore\Scripts\ClientResource\Resource.de.js
D:\AWCTQuoteCode_12_11_2020\AWCTMultifront931Quote\AWCTMultifront931\AWCTMultifront931\Projects\Znode.Engine.WebStore\Scripts\ClientResource\Resource.de.js.map
D:\AWCTQuoteCode_12_11_2020\AWCTMultifront931Quote\AWCTMultifront931\AWCTMultifront931\Projects\Znode.Engine.WebStore\Scripts\ClientResource\Resource.en.js
D:\AWCTQuoteCode_12_11_2020\AWCTMultifront931Quote\AWCTMultifront931\AWCTMultifront931\Projects\Znode.Engine.WebStore\Scripts\ClientResource\Resource.en.js.map
D:\AWCTQuoteCode_12_11_2020\AWCTMultifront931Quote\AWCTMultifront931\AWCTMultifront931\Projects\Znode.Engine.WebStore\Scripts\ClientResource\Resource.fr.js
D:\AWCTQuoteCode_12_11_2020\AWCTMultifront931Quote\AWCTMultifront931\AWCTMultifront931\Projects\Znode.Engine.WebStore\Scripts\ClientResource\Resource.fr.js.map
D:\AWCTQuoteCode_12_11_2020\AWCTMultifront931Quote\AWCTMultifront931\AWCTMultifront931\Projects\Znode.Engine.WebStore\Scripts\Core\Common\ZnodeGlobal.js
D:\AWCTQuoteCode_12_11_2020\AWCTMultifront931Quote\AWCTMultifront931\AWCTMultifront931\Projects\Znode.Engine.WebStore\Scripts\Core\Common\ZnodeGlobal.js.map
D:\AWCTQuoteCode_12_11_2020\AWCTMultifront931Quote\AWCTMultifront931\AWCTMultifront931\Projects\Znode.Engine.WebStore\Scripts\Core\Common\ZnodeHelper.js
D:\AWCTQuoteCode_12_11_2020\AWCTMultifront931Quote\AWCTMultifront931\AWCTMultifront931\Projects\Znode.Engine.WebStore\Scripts\Core\Common\ZnodeHelper.js.map
D:\AWCTQuoteCode_12_11_2020\AWCTMultifront931Quote\AWCTMultifront931\AWCTMultifront931\Projects\Znode.Engine.WebStore\Scripts\Core\Common\ZnodeRegExHelper.js
D:\AWCTQuoteCode_12_11_2020\AWCTMultifront931Quote\AWCTMultifront931\AWCTMultifront931\Projects\Znode.Engine.WebStore\Scripts\Core\Common\ZnodeRegExHelper.js.map
D:\AWCTQuoteCode_12_11_2020\AWCTMultifront931Quote\AWCTMultifront931\AWCTMultifront931\Projects\Znode.Engine.WebStore\Scripts\Core\Controls\TextBoxEditorFor.js
D:\AWCTQuoteCode_12_11_2020\AWCTMultifront931Quote\AWCTMultifront931\AWCTMultifront931\Projects\Znode.Engine.WebStore\Scripts\Core\Controls\TextBoxEditorFor.js.map
D:\AWCTQuoteCode_12_11_2020\AWCTMultifront931Quote\AWCTMultifront931\AWCTMultifront931\Projects\Znode.Engine.WebStore\Scripts\Core\Controls\WebGrid\CustomJurl.js
D:\AWCTQuoteCode_12_11_2020\AWCTMultifront931Quote\AWCTMultifront931\AWCTMultifront931\Projects\Znode.Engine.WebStore\Scripts\Core\Controls\WebGrid\CustomJurl.js.map
D:\AWCTQuoteCode_12_11_2020\AWCTMultifront931Quote\AWCTMultifront931\AWCTMultifront931\Projects\Znode.Engine.WebStore\Scripts\Core\Controls\WebGrid\DynamicGrid.js
D:\AWCTQuoteCode_12_11_2020\AWCTMultifront931Quote\AWCTMultifront931\AWCTMultifront931\Projects\Znode.Engine.WebStore\Scripts\Core\Controls\WebGrid\DynamicGrid.js.map
D:\AWCTQuoteCode_12_11_2020\AWCTMultifront931Quote\AWCTMultifront931\AWCTMultifront931\Projects\Znode.Engine.WebStore\Scripts\Core\Controls\WebGrid\GridPager.js
D:\AWCTQuoteCode_12_11_2020\AWCTMultifront931Quote\AWCTMultifront931\AWCTMultifront931\Projects\Znode.Engine.WebStore\Scripts\Core\Controls\WebGrid\GridPager.js.map
D:\AWCTQuoteCode_12_11_2020\AWCTMultifront931Quote\AWCTMultifront931\AWCTMultifront931\Projects\Znode.Engine.WebStore\Scripts\Core\Controls\ZnodeAjaxify.js
D:\AWCTQuoteCode_12_11_2020\AWCTMultifront931Quote\AWCTMultifront931\AWCTMultifront931\Projects\Znode.Engine.WebStore\Scripts\Core\Controls\ZnodeAjaxify.js.map
D:\AWCTQuoteCode_12_11_2020\AWCTMultifront931Quote\AWCTMultifront931\AWCTMultifront931\Projects\Znode.Engine.WebStore\Scripts\Core\Controls\ZnodeMultiSelect.js
D:\AWCTQuoteCode_12_11_2020\AWCTMultifront931Quote\AWCTMultifront931\AWCTMultifront931\Projects\Znode.Engine.WebStore\Scripts\Core\Controls\ZnodeMultiSelect.js.map
D:\AWCTQuoteCode_12_11_2020\AWCTMultifront931Quote\AWCTMultifront931\AWCTMultifront931\Projects\Znode.Engine.WebStore\Scripts\Core\Endpoint\ZnodeEndpoint.js
D:\AWCTQuoteCode_12_11_2020\AWCTMultifront931Quote\AWCTMultifront931\AWCTMultifront931\Projects\Znode.Engine.WebStore\Scripts\Core\Endpoint\ZnodeEndpoint.js.map
D:\AWCTQuoteCode_12_11_2020\AWCTMultifront931Quote\AWCTMultifront931\AWCTMultifront931\Projects\Znode.Engine.WebStore\Scripts\Core\Model\Znode.Model.js
D:\AWCTQuoteCode_12_11_2020\AWCTMultifront931Quote\AWCTMultifront931\AWCTMultifront931\Projects\Znode.Engine.WebStore\Scripts\Core\Model\Znode.Model.js.map
D:\AWCTQuoteCode_12_11_2020\AWCTMultifront931Quote\AWCTMultifront931\AWCTMultifront931\Projects\Znode.Engine.WebStore\Scripts\Core\Znode\BlogNews.js
D:\AWCTQuoteCode_12_11_2020\AWCTMultifront931Quote\AWCTMultifront931\AWCTMultifront931\Projects\Znode.Engine.WebStore\Scripts\Core\Znode\BlogNews.js.map
D:\AWCTQuoteCode_12_11_2020\AWCTMultifront931Quote\AWCTMultifront931\AWCTMultifront931\Projects\Znode.Engine.WebStore\Scripts\Core\Znode\Brand.js
D:\AWCTQuoteCode_12_11_2020\AWCTMultifront931Quote\AWCTMultifront931\AWCTMultifront931\Projects\Znode.Engine.WebStore\Scripts\Core\Znode\Brand.js.map
D:\AWCTQuoteCode_12_11_2020\AWCTMultifront931Quote\AWCTMultifront931\AWCTMultifront931\Projects\Znode.Engine.WebStore\Scripts\Core\Znode\Cart.js
D:\AWCTQuoteCode_12_11_2020\AWCTMultifront931Quote\AWCTMultifront931\AWCTMultifront931\Projects\Znode.Engine.WebStore\Scripts\Core\Znode\Cart.js.map
D:\AWCTQuoteCode_12_11_2020\AWCTMultifront931Quote\AWCTMultifront931\AWCTMultifront931\Projects\Znode.Engine.WebStore\Scripts\Core\Znode\CaseRequest.js
D:\AWCTQuoteCode_12_11_2020\AWCTMultifront931Quote\AWCTMultifront931\AWCTMultifront931\Projects\Znode.Engine.WebStore\Scripts\Core\Znode\CaseRequest.js.map
D:\AWCTQuoteCode_12_11_2020\AWCTMultifront931Quote\AWCTMultifront931\AWCTMultifront931\Projects\Znode.Engine.WebStore\Scripts\Core\Znode\Category.js
D:\AWCTQuoteCode_12_11_2020\AWCTMultifront931Quote\AWCTMultifront931\AWCTMultifront931\Projects\Znode.Engine.WebStore\Scripts\Core\Znode\Category.js.map
D:\AWCTQuoteCode_12_11_2020\AWCTMultifront931Quote\AWCTMultifront931\AWCTMultifront931\Projects\Znode.Engine.WebStore\Scripts\Core\Znode\Checkout.js
D:\AWCTQuoteCode_12_11_2020\AWCTMultifront931Quote\AWCTMultifront931\AWCTMultifront931\Projects\Znode.Engine.WebStore\Scripts\Core\Znode\Checkout.js.map
D:\AWCTQuoteCode_12_11_2020\AWCTMultifront931Quote\AWCTMultifront931\AWCTMultifront931\Projects\Znode.Engine.WebStore\Scripts\Core\Znode\Config.js
D:\AWCTQuoteCode_12_11_2020\AWCTMultifront931Quote\AWCTMultifront931\AWCTMultifront931\Projects\Znode.Engine.WebStore\Scripts\Core\Znode\Config.js.map
D:\AWCTQuoteCode_12_11_2020\AWCTMultifront931Quote\AWCTMultifront931\AWCTMultifront931\Projects\Znode.Engine.WebStore\Scripts\Core\Znode\ContentPage.js
D:\AWCTQuoteCode_12_11_2020\AWCTMultifront931Quote\AWCTMultifront931\AWCTMultifront931\Projects\Znode.Engine.WebStore\Scripts\Core\Znode\ContentPage.js.map
D:\AWCTQuoteCode_12_11_2020\AWCTMultifront931Quote\AWCTMultifront931\AWCTMultifront931\Projects\Znode.Engine.WebStore\Scripts\Core\Znode\FormBuilder.js
D:\AWCTQuoteCode_12_11_2020\AWCTMultifront931Quote\AWCTMultifront931\AWCTMultifront931\Projects\Znode.Engine.WebStore\Scripts\Core\Znode\FormBuilder.js.map
D:\AWCTQuoteCode_12_11_2020\AWCTMultifront931Quote\AWCTMultifront931\AWCTMultifront931\Projects\Znode.Engine.WebStore\Scripts\Core\Znode\Home.js
D:\AWCTQuoteCode_12_11_2020\AWCTMultifront931Quote\AWCTMultifront931\AWCTMultifront931\Projects\Znode.Engine.WebStore\Scripts\Core\Znode\Home.js.map
D:\AWCTQuoteCode_12_11_2020\AWCTMultifront931Quote\AWCTMultifront931\AWCTMultifront931\Projects\Znode.Engine.WebStore\Scripts\Core\Znode\Import.js
D:\AWCTQuoteCode_12_11_2020\AWCTMultifront931Quote\AWCTMultifront931\AWCTMultifront931\Projects\Znode.Engine.WebStore\Scripts\Core\Znode\Import.js.map
D:\AWCTQuoteCode_12_11_2020\AWCTMultifront931Quote\AWCTMultifront931\AWCTMultifront931\Projects\Znode.Engine.WebStore\Scripts\Core\Znode\Product.js
D:\AWCTQuoteCode_12_11_2020\AWCTMultifront931Quote\AWCTMultifront931\AWCTMultifront931\Projects\Znode.Engine.WebStore\Scripts\Core\Znode\Product.js.map
D:\AWCTQuoteCode_12_11_2020\AWCTMultifront931Quote\AWCTMultifront931\AWCTMultifront931\Projects\Znode.Engine.WebStore\Scripts\Core\Znode\QuickOrder.js
D:\AWCTQuoteCode_12_11_2020\AWCTMultifront931Quote\AWCTMultifront931\AWCTMultifront931\Projects\Znode.Engine.WebStore\Scripts\Core\Znode\QuickOrder.js.map
D:\AWCTQuoteCode_12_11_2020\AWCTMultifront931Quote\AWCTMultifront931\AWCTMultifront931\Projects\Znode.Engine.WebStore\Scripts\Core\Znode\QuickOrderPad.js
D:\AWCTQuoteCode_12_11_2020\AWCTMultifront931Quote\AWCTMultifront931\AWCTMultifront931\Projects\Znode.Engine.WebStore\Scripts\Core\Znode\QuickOrderPad.js.map
D:\AWCTQuoteCode_12_11_2020\AWCTMultifront931Quote\AWCTMultifront931\AWCTMultifront931\Projects\Znode.Engine.WebStore\Scripts\Core\Znode\Quote.js
D:\AWCTQuoteCode_12_11_2020\AWCTMultifront931Quote\AWCTMultifront931\AWCTMultifront931\Projects\Znode.Engine.WebStore\Scripts\Core\Znode\Quote.js.map
D:\AWCTQuoteCode_12_11_2020\AWCTMultifront931Quote\AWCTMultifront931\AWCTMultifront931\Projects\Znode.Engine.WebStore\Scripts\Core\Znode\Search.js
D:\AWCTQuoteCode_12_11_2020\AWCTMultifront931Quote\AWCTMultifront931\AWCTMultifront931\Projects\Znode.Engine.WebStore\Scripts\Core\Znode\Search.js.map
D:\AWCTQuoteCode_12_11_2020\AWCTMultifront931Quote\AWCTMultifront931\AWCTMultifront931\Projects\Znode.Engine.WebStore\Scripts\Core\Znode\SiteMap.js
D:\AWCTQuoteCode_12_11_2020\AWCTMultifront931Quote\AWCTMultifront931\AWCTMultifront931\Projects\Znode.Engine.WebStore\Scripts\Core\Znode\SiteMap.js.map
D:\AWCTQuoteCode_12_11_2020\AWCTMultifront931Quote\AWCTMultifront931\AWCTMultifront931\Projects\Znode.Engine.WebStore\Scripts\Core\Znode\StoreLocator.js
D:\AWCTQuoteCode_12_11_2020\AWCTMultifront931Quote\AWCTMultifront931\AWCTMultifront931\Projects\Znode.Engine.WebStore\Scripts\Core\Znode\StoreLocator.js.map
D:\AWCTQuoteCode_12_11_2020\AWCTMultifront931Quote\AWCTMultifront931\AWCTMultifront931\Projects\Znode.Engine.WebStore\Scripts\Core\Znode\User.js
D:\AWCTQuoteCode_12_11_2020\AWCTMultifront931Quote\AWCTMultifront931\AWCTMultifront931\Projects\Znode.Engine.WebStore\Scripts\Core\Znode\User.js.map
D:\AWCTQuoteCode_12_11_2020\AWCTMultifront931Quote\AWCTMultifront931\AWCTMultifront931\Projects\Znode.Engine.WebStore\Scripts\Core\Znode\ZnodeNotification.js
D:\AWCTQuoteCode_12_11_2020\AWCTMultifront931Quote\AWCTMultifront931\AWCTMultifront931\Projects\Znode.Engine.WebStore\Scripts\Core\Znode\ZnodeNotification.js.map
D:\AWCTQuoteCode_12_11_2020\AWCTMultifront931Quote\AWCTMultifront931\AWCTMultifront931\Projects\Znode.Engine.WebStore\Scripts\Core\Znode\ZSearch.js
D:\AWCTQuoteCode_12_11_2020\AWCTMultifront931Quote\AWCTMultifront931\AWCTMultifront931\Projects\Znode.Engine.WebStore\Scripts\Core\Znode\ZSearch.js.map
D:\AWCTQuoteCode_12_11_2020\AWCTMultifront931Quote\AWCTMultifront931\AWCTMultifront931\Projects\Znode.Engine.WebStore\Scripts\Extensions\CustomHome.js
D:\AWCTQuoteCode_12_11_2020\AWCTMultifront931Quote\AWCTMultifront931\AWCTMultifront931\Projects\Znode.Engine.WebStore\Scripts\Extensions\CustomHome.js.map
