
************* 12-02-2020 11:04:43 *************
12-02-2020 11:04:43-- API Call Success.------API called http://localhost:44762//search/createindex/awctdance2019/PRODUCTION/12/815/815 
***********************************************

************* 12-02-2020 11:04:43 *************
Indexer|12|awctdance2019|11|815|Manually|http://localhost:44762/|2|815|PRODUCTION|bG9jYWxob3N0OjY3NjZ8|0|600000
***********************************************
