
************* 11-01-2021 14:18:57 *************
11-01-2021 14:18:57-- API Call Success.------API called http://localhost:44762//search/createindex/awctdance_v4/PREVIEW/12/1709/1709 
***********************************************

************* 11-01-2021 14:18:57 *************
Indexer|12|awctdance_v4|11|1709|Manually|http://localhost:44762/|538932|1709|PREVIEW|bG9jYWxob3N0OjY3NjZ8|0|600000
***********************************************

************* 11-01-2021 14:22:31 *************
11-01-2021 14:22:31-- API Call Success.------API called http://localhost:44762//search/createindex/awctdance_v4/PRODUCTION/12/1710/1710 
***********************************************

************* 11-01-2021 14:22:31 *************
Indexer|12|awctdance_v4|11|1710|Manually|http://localhost:44762/|538932|1710|PRODUCTION|bG9jYWxob3N0OjY3NjZ8|0|600000
***********************************************
