
************* 01-07-2020 12:44:30 *************
01-07-2020 12:44:30-- API Call Success.------API called http://localhost:44762//search/createindex/awctdance2019new/PRODUCTION/12/811/811 
***********************************************

************* 01-07-2020 12:44:30 *************
Indexer|12|awctdance2019new|11|811|Manually|http://localhost:44762/|523076|811|PRODUCTION|bG9jYWxob3N0OjY3NjZ8|0|600000
***********************************************
