
************* 11-29-2019 17:59:37 *************
11-29-2019 17:59:37-- API Call Success.------API called http://localhost:44762//search/createindex/awctdance2019nivi/PRODUCTION/12/755/755 
***********************************************

************* 11-29-2019 17:59:37 *************
Indexer|12|awctdance2019nivi|11|755|Manually|http://localhost:44762/|2|755|PRODUCTION|bG9jYWxob3N0OjY3NjZ8|0|600000
***********************************************

************* 11-29-2019 18:04:22 *************
11-29-2019 18:04:22-- API Call Success.------API called http://localhost:44762//search/createindex/awctdance2019nivi/PRODUCTION/12/756/756 
***********************************************

************* 11-29-2019 18:04:22 *************
Indexer|12|awctdance2019nivi|11|756|Manually|http://localhost:44762/|2|756|PRODUCTION|bG9jYWxob3N0OjY3NjZ8|0|600000
***********************************************
